sj,2012,41,461
iq,2012,41,461
sj,2012,40,426
iq,2012,40,426
sj,2012,45,410
iq,2012,45,410
sj,2012,39,395
iq,2012,39,395
sj,2012,42,381
iq,2012,42,381
sj,2012,46,364
iq,2012,46,364
sj,2012,47,359
iq,2012,47,359
sj,2012,44,353
iq,2012,44,353
sj,2012,43,333
iq,2012,43,333
sj,2012,38,302
iq,2012,38,302
sj,2012,48,288
iq,2012,48,288
sj,2012,37,272
iq,2012,37,272
sj,2012,49,221
iq,2012,49,221
sj,2012,36,202
iq,2012,36,202
sj,2012,35,179
iq,2012,35,179
sj,2009,49,169
sj,2013,1,154
iq,2013,1,154
sj,2012,50,149
iq,2012,50,149
sj,2009,43,142
sj,2009,50,141
sj,2009,41,140
sj,2009,45,140
sj,2009,46,140
sj,2009,44,129
sj,2009,48,129
sj,2009,47,127
sj,2009,42,116
sj,2012,34,115
iq,2012,34,115
sj,2012,51,112
iq,2012,51,112
sj,2009,51,108
sj,2010,2,104
sj,2009,40,92
sj,2013,2,91
iq,2013,2,91
sj,2010,3,90
sj,2009,39,89
sj,2012,33,89
iq,2012,33,89
sj,2010,1,87
sj,2010,4,85
sj,2012,31,84
iq,2012,31,84
sj,2012,30,80
iq,2012,30,80
sj,2009,52,78
sj,2009,35,76
sj,2010,42,76
iq,2010,42,76
sj,2010,38,74
iq,2010,38,74
sj,2012,32,72
sj,2013,3,72
iq,2012,32,72
iq,2013,3,72
sj,2008,45,71
sj,2010,53,70
sj,2010,39,70
iq,2010,39,70
sj,2009,38,68
sj,2010,36,67
iq,2010,36,67
sj,2009,36,66
sj,2010,7,65
sj,2010,37,65
iq,2010,37,65
sj,2009,37,64
sj,2009,33,62
sj,2010,40,61
sj,2010,43,61
iq,2010,40,61
iq,2010,43,61
sj,2009,34,60
sj,2010,48,60
sj,2010,49,60
iq,2010,48,60
iq,2010,49,60
sj,2010,10,59
sj,2010,35,59
iq,2010,35,59
sj,2008,44,57
sj,2010,44,57
iq,2010,44,57
sj,2008,47,56
sj,2013,4,56
iq,2013,4,56
sj,2010,5,55
sj,2012,29,55
iq,2012,29,55
sj,2008,48,53
sj,2010,6,53
sj,2010,41,53
sj,2010,50,53
iq,2010,41,53
iq,2010,50,53
sj,2008,49,52
sj,2010,34,52
iq,2010,34,52
sj,2012,26,49
sj,2012,28,49
iq,2012,26,49
iq,2012,28,49
sj,2008,50,47
sj,2010,47,47
iq,2010,47,47
sj,2011,45,46
sj,2013,5,46
iq,2011,45,46
iq,2013,5,46
sj,2008,46,44
sj,2010,45,44
iq,2010,45,44
sj,2008,42,43
sj,2011,44,43
iq,2011,44,43
sj,2008,40,42
sj,2012,27,42
iq,2012,27,42
sj,2008,38,40
sj,2010,11,40
sj,2011,48,40
iq,2011,48,40
sj,2012,5,39
iq,2012,5,39
sj,2010,9,38
sj,2011,42,38
sj,2011,50,38
sj,2012,25,38
iq,2011,42,38
iq,2011,50,38
iq,2012,25,38
sj,2008,43,37
sj,2009,6,37
sj,2010,12,37
sj,2012,8,37
sj,2013,6,37
iq,2012,8,37
iq,2013,6,37
sj,2010,51,36
sj,2011,43,36
sj,2012,4,36
iq,2010,51,36
iq,2011,43,36
iq,2012,4,36
sj,2010,31,35
sj,2011,5,35
sj,2012,3,35
iq,2010,31,35
iq,2011,5,35
iq,2012,3,35
sj,2009,5,34
sj,2010,46,34
sj,2012,22,34
iq,2010,46,34
iq,2012,22,34
sj,2008,41,33
sj,2010,8,33
sj,2010,32,33
sj,2011,3,33
sj,2011,4,33
sj,2012,9,33
iq,2010,32,33
iq,2011,3,33
iq,2011,4,33
iq,2012,9,33
sj,2010,30,32
sj,2011,1,32
iq,2010,30,32
iq,2011,1,32
sj,2010,27,31
sj,2011,52,31
sj,2011,46,31
sj,2011,49,31
sj,2012,1,31
sj,2012,7,31
sj,2012,21,31
sj,2012,23,31
sj,2012,24,31
iq,2010,27,31
iq,2011,52,31
iq,2011,46,31
iq,2011,49,31
iq,2012,1,31
iq,2012,7,31
iq,2012,21,31
iq,2012,23,31
iq,2012,24,31
sj,2010,14,30
sj,2010,15,30
sj,2010,33,30
sj,2011,51,30
iq,2010,33,30
iq,2011,51,30
sj,2010,13,29
sj,2010,19,29
sj,2010,26,29
sj,2011,41,29
iq,2010,26,29
iq,2011,41,29
sj,2008,35,28
sj,2010,16,28
sj,2010,28,28
sj,2011,2,28
sj,2011,36,28
iq,2010,28,28
iq,2011,2,28
iq,2011,36,28
sj,2008,39,27
sj,2008,52,27
sj,2011,37,27
iq,2011,37,27
sj,2008,51,26
sj,2009,4,26
sj,2010,20,26
sj,2010,25,26
sj,2010,29,26
sj,2012,2,26
sj,2013,7,26
iq,2010,29,26
iq,2012,2,26
iq,2013,7,26
sj,2009,9,25
sj,2009,32,25
sj,2011,32,25
sj,2011,35,25
sj,2011,47,25
sj,2012,6,25
sj,2012,10,25
iq,2011,32,25
iq,2011,35,25
iq,2011,47,25
iq,2012,6,25
iq,2012,10,25
sj,2008,36,24
sj,2010,18,24
sj,2012,11,24
sj,2012,20,24
iq,2012,11,24
iq,2012,20,24
sj,2008,32,23
sj,2009,17,23
sj,2009,31,23
sj,2010,17,23
sj,2010,21,23
sj,2011,33,23
sj,2011,39,23
sj,2011,40,23
sj,2012,13,23
iq,2011,33,23
iq,2011,39,23
iq,2011,40,23
iq,2012,13,23
sj,2011,6,22
sj,2011,24,22
sj,2011,30,22
sj,2012,52,22
sj,2012,18,22
iq,2011,6,22
iq,2011,24,22
iq,2011,30,22
iq,2012,52,22
iq,2012,18,22
sj,2008,34,21
sj,2009,1,21
sj,2009,2,21
sj,2009,3,21
sj,2009,11,21
sj,2009,25,21
sj,2011,9,21
sj,2011,26,21
iq,2011,9,21
iq,2011,26,21
sj,2008,37,20
sj,2010,22,20
sj,2010,24,20
sj,2013,10,20
iq,2013,10,20
sj,2009,8,19
sj,2009,24,19
sj,2010,23,19
sj,2011,22,19
iq,2011,22,19
sj,2009,10,18
sj,2009,27,18
sj,2009,30,18
sj,2011,21,18
sj,2011,27,18
sj,2011,38,18
sj,2012,12,18
sj,2012,15,18
iq,2011,21,18
iq,2011,27,18
iq,2011,38,18
iq,2012,12,18
iq,2012,15,18
sj,2008,31,17
sj,2009,7,17
sj,2009,12,17
sj,2009,13,17
sj,2009,19,17
sj,2009,21,17
sj,2011,10,17
sj,2011,18,17
sj,2011,31,17
sj,2012,17,17
sj,2013,8,17
sj,2013,9,17
iq,2011,10,17
iq,2011,18,17
iq,2011,31,17
iq,2012,17,17
iq,2013,8,17
iq,2013,9,17
sj,2009,14,16
sj,2009,15,16
sj,2009,18,16
sj,2011,28,16
sj,2011,29,16
sj,2013,13,16
sj,2013,15,16
iq,2011,28,16
iq,2011,29,16
iq,2013,13,16
iq,2013,15,16
iq,2013,23,16
sj,2009,16,15
sj,2009,23,15
sj,2009,26,14
sj,2009,29,14
sj,2012,16,14
sj,2013,14,14
iq,2012,16,14
iq,2013,14,14
sj,2008,33,13
sj,2009,28,13
sj,2011,7,13
sj,2011,8,13
sj,2012,14,13
sj,2012,19,13
iq,2011,7,13
iq,2011,8,13
iq,2012,14,13
iq,2012,19,13
sj,2009,20,12
sj,2011,17,12
sj,2011,23,12
sj,2011,25,12
sj,2011,34,12
iq,2011,17,12
iq,2011,23,12
iq,2011,25,12
iq,2011,34,12
sj,2011,11,11
sj,2013,11,11
iq,2011,11,11
iq,2013,11,11
sj,2008,26,10
sj,2009,22,10
sj,2011,19,10
sj,2011,20,10
iq,2011,19,10
iq,2011,20,10
iq,2013,26,10
sj,2008,28,8
sj,2011,12,8
sj,2011,13,8
iq,2011,12,8
iq,2011,13,8
iq,2013,24,8
sj,2011,16,7
sj,2013,12,7
iq,2011,16,7
iq,2013,12,7
iq,2013,25,7
sj,2008,22,6
sj,2008,27,6
sj,2008,30,6
sj,2011,14,6
sj,2011,15,6
iq,2011,14,6
iq,2011,15,6
iq,2013,18,6
sj,2008,19,5
sj,2008,25,5
sj,2013,16,5
iq,2013,16,5
iq,2013,19,5
sj,2008,18,4
sj,2008,20,4
sj,2008,24,4
iq,2013,20,4
iq,2013,22,4
sj,2008,21,3
iq,2013,21,3
sj,2008,23,2
sj,2008,29,2
sj,2013,17,2
iq,2013,17,2
